4 MIDFIELD Pre-Institute Workshop | midfield-workshops.utf8.md
…
#> Observations: 142
#> Variables: 6
#> $ country   <fct> Afghanistan, Albania, Algeria, Angola, Argentina, Au...
#> $ continent <fct> Asia, Europe, Africa, Africa, Americas, Oceania, Eur...
#> $ year      <int> 2007, 2007, 2007, 2007, 2007, 2007, 2007, 2007, 2007...
#> $ lifeExp   <dbl> 43.828, 76.423, 72.301, 42.731, 75.320, 81.235, 79.8...
#> $ pop       <int> 31889923, 3600523, 33333216, 12420476, 40301927, 204...
#> $ gdpPercap <dbl> 974.5803, 5937.0295, 6223.3675, 4797.2313, 12779.379...

And we can just type its name to see the first few rows,

gapminder

#> # A tibble: 142 x 6
#>    country     continent  year lifeExp       pop gdpPercap
#>    <fct>       <fct>     <int>   <dbl>     <int>     <dbl>
#>  1 Afghanistan Asia       2007    43.8  31889923      975.
#>  2 Albania     Europe     2007    76.4   3600523     5937.
#>  3 Algeria     Africa     2007    72.3  33333216     6223.
#>  4 Angola      Africa     2007    42.7  12420476     4797.
#>  5 Argentina   Americas   2007    75.3  40301927    12779.
#>  6 Australia   Oceania    2007    81.2  20434176    34435.
#>  7 Austria     Europe     2007    79.8   8199783    36126.
#>  8 Bahrain     Asia       2007    75.6    708573    29796.
#>  9 Bangladesh  Asia       2007    64.1 150448339     1391.
#> 10 Belgium     Europe     2007    79.4  10392226    33693.
#> # ... with 132 more rows
…
