5 R basics | midfield-workshops.utf8.md
…
The following code chunk

starwars %>%
        count(homeworld) 

could be read as,

start with the starwars object, then

count the number of observations n by homeworld

Because each observation in starwars is a person, count() yields the number of people from a given homeworld. The result is:

#> # A tibble: 49 x 2
#>    homeworld          n
#>    <chr>          <int>
#>  1 <NA>              10
#>  2 Alderaan           3
#>  3 Aleen Minor        1
#>  4 Bespin             1
#>  5 Bestine IV         1
#>  6 Cato Neimoidia     1
#>  7 Cerea              1
#>  8 Champala           1
#>  9 Chandrila          1
#> 10 Concord Dawn       1
#> # ... with 39 more rows
…
